first_name,last_name,name,address,drivers_license,phone_number
Lidia,Chatres,Lidia Chatres,129 Manley Junction,,376-269-3612
Son,McElhinney,Son McElhinney,1514 Grasskamp Center,,557-367-1357
Adlai,Cater,Adlai Cater,2633 Summerview Way,,642-449-9771
Iormina,Gilder,Iormina Gilder,503 American Circle,,180-511-1683
Fidelia,Woodage,Fidelia Woodage,14 Express Terrace,,821-473-0452
Edlin,Mawd,Edlin Mawd,7447 Hoffman Center,,225-112-2658
Morissa,Watts,Morissa Watts,45414 Westend Pass,,228-769-6729
Symon,Sibbit,Symon Sibbit,92 Prairieview Avenue,,719-867-9697
Merrile,Rackley,Merrile Rackley,95689 Doe Crossing Plaza,,911-727-4778
Galina,Uphill,Galina Uphill,52 Blaine Park,,594-791-4675
Elonore,Peyzer,Elonore Peyzer,76087 Melrose Circle,,412-619-7268
Mireielle,Maciejewski Mireielle,Maciejewski,8 Westerfield Terrace,,832-420-2955
Eddi,Beardsall,Eddi Beardsall,28840 Onsgard Road,,509-612-4494
Jasmin,Costanza,Jasmin Costanza,3 Jenna Alley,,121-613-1629
Adrienne,Buche,Adrienne Buche,229 Stang Circle,,246-928-4603
Modesty,Mathon,Modesty Mathon,08 Alpine Way,,350-637-3417
Alvin,Picken,Alvin Picken,38 Logan Park,,839-985-7559
Bennie,Yter,Bennie Yter,04 Swallow Lane,,174-508-3329
Sharon,Franken,Sharon Franken,218 Alpine Plaza,,697-737-7801
Alis,Lias,Alis Lias,650 Menomonie Crossing,,957-748-0931
Conchita,Offell,Conchita Offell,7697 Spohn Parkway,,238-451-2884
Elliot,Tanzig,Elliot Tanzig,622 Forest Run Drive,,779-632-0303
Boony,Bertl,Boony Bertl,70167 Trailsway Crossing,,932-614-2072
Pryce,Henriquet,Pryce Henriquet,1 Lawn Crossing,,733-990-3425
Prudy,Josey,Prudy Josey,6 Pankratz Terrace,,124-989-3900
Dita,Ewbanks,Dita Ewbanks,2909 Welch Way,,117-146-8449
Rebekah,Geelan,Rebekah Geelan,2 Debra Court,,337-852-1668
Annissa,Lording,Annissa Lording,70 Blackbird Center,,145-384-5934
Myrah,MacGarvey,Myrah MacGarvey,451 Northfield Avenue,,549-715-9910
Bertrand,Tunsley,Bertrand Tunsley,184 Monument Parkway,,799-444-5675
Salomi,Roughley,Salomi Roughley,6 Onsgard Trail,,491-998-3667
Irv,Guilloton,Irv Guilloton,5539 Blackbird Junction,,788-522-1740
Salmon,Pynn,Salmon Pynn,68 Fremont Point,,344-953-5490
Carmel,Rowbrey,Carmel Rowbrey,2294 Crest Line Plaza,,504-981-8372
Maddy,Glewe,Maddy Glewe,751 Loomis Street,,633-257-6518
Henrieta,Joliffe,Henrieta Joliffe,6524 Manufacturers Parkway,,330-156-3603
Kristofer,Combes,Kristofer Combes,77 Eliot Place,,172-852-9040
Talbot,MacFall,Talbot MacFall,2 Lien Center,,526-226-1229
Humbert,Cauthra,Humbert Cauthra,5903 Basil Court,,410-155-9625
Murdock,Jamary,Murdock Jamary,0 Fisk Lane,,813-438-8844
Quintana,Mewett,Quintana Mewett,67 Riverside Point,,565-105-1677
Tracey,Fuentes,Tracey Fuentes,4 Oneill Court,,823-528-5301
Angele,Lummis,Angele Lummis,2484 Hazelcrest Center,,601-607-8965
Lettie,Botfield,Lettie Botfield,9888 Holmberg Street,,922-196-4633
Reeva,Osinin,Reeva Osinin,4992 Lien Street,,481-438-9100
Martha,Landrick,Martha Landrick,434 Helena Street,,666-329-3433
Teirtza,Millichip,Teirtza Millichip,66041 Lyons Place,,656-410-0625
Adrianne,Emanuelli,Adrianne Emanuelli,11 Dovetail Street,,863-692-3047
Teriann,Iacovazzi,Teriann Iacovazzi,139 Corry Hill,,405-216-3651
Cris,Addicott,Cris Addicott,98912 Schlimgen Court,,789-461-2431
